PLEASE NOTE THAT FOR THE CODE TO FUNCTION PROPERLY YOU NEED TO PROVIDE DATABASE CREDENTIALS IN <<dbConnect.php>> FILE

------------------------------------------------------------------------------------------------------------------------------------------------------------------

users login data for test purposes only:

    User - Project owner
    challattb@hotmail.com
    xu3dDi
    ________________________
    User - Ordinary
    ccheine2@jugem.jp
    4Se3kBWFJyZ

------------------------------------------------------------------------------------------------------------------------------------------------------------------

The webpage begins with a start page and welcome page. All the other pages are available after logging in.
NB! Webpage follows certain requirements:
    - If the user is a project owner, they cannot support(invest in) their own project
    - Users cannot enter data past the due date of project. Also they cannot donate a sum larger than required by project owner
    - Users cannot support one project more than once
UX supports any failures, thus if any of the above requirements are not met, the webpage will show a corresponding error message





